-------------------------------------------------------------------------------
Test set: pl.com.microservices.eastworld.EastworldApplicationTests
-------------------------------------------------------------------------------
Tests run: 1, Failures: 0, Errors: 0, Skipped: 0, Time elapsed: 20.252 s - in pl.com.microservices.eastworld.EastworldApplicationTests
